{
  "$schema": "http://json-schema.org/draft-04/schema#",
  "title": "fixtures schema",
  "description": "This is the schema for football fixtures",
  "type":"array",
  "items": {
    "$ref": "#/definitions/fixture"
  },
  "definitions": {
    "teamData": {
      "$schema": "http://json-schema.org/draft-04/schema#",
      "id": "http://jsonschema.net/teamData",
      "type": "object",
      "properties": {
        "id": {
          "id": "http://jsonschema.net/id",
          "type": "integer"
        },
        "name": {
          "id": "http://jsonschema.net/name",
          "type": "string"
        },
        "longName": {
          "id": "http://jsonschema.net/longName",
          "type": "string"
        },
        "goalsScored": {
          "type": "array",
          "id": "http://jsonschema.net/goalsScored",
          "items": {
            "$ref": "#/definitions/goalScored"
          },
          "definitions": {
            "goalScored": {
              "$schema": "http://json-schema.org/draft-04/schema#",
              "type": "object",
              "properties": {
                "name": {
                  "id": "http://jsonschema.net/name",
                  "type": "string"
                },
                "typeOfGoal": {
                  "id": "http://jsonschema.net/typeOfGoal",
                  "type": "string"
                },
                "minuteOfGoal": {
                  "id": "http://jsonschema.net/minuteOfGoal",
                  "type": "string"
                }
              },
              "required": [
                "name",
                "typeOfGoal",
                "minuteOfGoal"
              ]
            }
          }
        },
        "penaltyShots": {
          "id": "http://jsonschema.net/penaltyShots",
          "type": "array",
          "items": {
            "$ref": "#/definitions/penaltyShot"
          },
          "definitions": {
            "penaltyShot": {
              "$schema": "http://json-schema.org/draft-04/schema#",
              "type": "object",
              "properties": {
                "eventTime": {
                  "id": "http://jsonschema.net/eventTime",
                  "type": "string"
                },
                "playerName": {
                  "id": "http://jsonschema.net/playerName",
                  "type": "string"
                },
                "scored": {
                  "id": "http://jsonschema.net/scored",
                  "type": "boolean"
                }
              },
              "required": [
                "eventTime",
                "playerName",
                "scored"
              ]
            }
          }
        },
        "tags": {
          "id": "http://jsonschema.net/tags",
          "type": "array",
          "items": {
            "id": "http://jsonschema.net/tags/0",
            "type": "object",
            "properties": {
              "id": {
                "id": "http://jsonschema.net/tags/0/id",
                "type": "string"
              },
              "optaSymId": {
                "id": "http://jsonschema.net/tags/0/optaSymId",
                "type": "string"
              },
              "fifaSymId": {
                "id": "http://jsonschema.net/tags/0/fifaSymId",
                "type": "string"
              }
            }
          }
        },
        "shortName": {
          "id": "http://jsonschema.net/shortName",
          "type": "string"
        },
        "score": {
          "id": "http://jsonschema.net/score",
          "type": "integer"
        }
      },
      "required": [
        "id",
        "name",
        "penaltyShots",
        "goalsScored",
        "score"
      ]
    },
    "fixture": {
      "$schema": "http://json-schema.org/draft-04/schema#",
      "type": "object",
      "properties": {
        "id": {
          "id": "http://jsonschema.net/id",
          "type": "integer"
        },
        "article": {
          "id": "http://jsonschema.net/article",
          "type": "object",
          "properties": {
            "id": {
              "id": "http://jsonschema.net/article/id",
              "type": "integer"
            },
            "lastUpdated": {
              "id": "http://jsonschema.net/article/lastUpdated",
              "type": "string"
            },
            "url": {
              "id": "http://jsonschema.net/article/url",
              "type": "null"
            }
          }
        },
        "lastUpdated": {
          "$ref": "#/definitions/timestamp"
        },
        "startDate": {
          "$ref": "#/definitions/timestamp"
        },
        "period": {
          "id": "http://jsonschema.net/period",
          "type": "string"
        },
        "finished": {
          "id": "http://jsonschema.net/finished",
          "type": "boolean"
        },
        "location": {
          "id": "http://jsonschema.net/location",
          "type": "string"
        },
        "attendance": {
          "id": "http://jsonschema.net/attendance",
          "type": "integer"
        },
        "referee": {
          "id": "http://jsonschema.net/referee",
          "type": "string"
        },
        "groupLabel": {
          "id": "http://jsonschema.net/groupLabel",
          "type": "string"
        },
        "homeTeam": {
          "$ref": "#/definitions/teamData"
        },
        "awayTeam": {
          "$ref": "#/definitions/teamData"
        }
      },
      "required": [
        "id",
        "competitionId",
        "seasonId",
        "lastUpdated",
        "startDate",
        "period"
      ],
      "definitions": {
        "stats": {
          "$schema": "http://json-schema.org/draft-04/schema#",
          "type": "array",
          "items": {
            "$ref": "#/definitions/stat"
          },
          "definitions": {
            "stat":{
              "$schema": "http://json-schema.org/draft-04/schema#",
              "type": "object",
              "properties": {
                "title": {
                  "id": "http://jsonschema.net/title",
                  "type": "string"
                },
                "values": {
                  "id": "http://jsonschema.net/values",
                  "type": "array",
                  "items": {
                    "$ref": "#/definitions/statValue"
                  }
                }
              },
              "required": [
                "title",
                "values"
              ],
              "definitions": {
                "statValue":{
                  "$schema": "http://json-schema.org/draft-04/schema#",
                  "type": "object",
                  "properties": {
                    "home": {
                      "id": "http://jsonschema.net/home",
                      "type": "number"
                    },
                    "away": {
                      "id": "http://jsonschema.net/away",
                      "type": "number"
                    }
                  },
                  "required": [
                    "home",
                    "away"
                  ]
                }
              }
            }
          }
        }
      }
    },
    "timestamp": {
      "description": "A unix timestamp, in milliseconds",
      "type": "integer",
      "minimum": 0
    }
  }
}
