{
  "$schema": "http://json-schema.org/draft-04/schema#",
  "title": "standings schema",
  "description": "This is the schema for football standings",
  "type":"array",
  "items": {
    "$ref": "#/definitions/standing"
  },
  "definitions": {
    "standing": {
      "description": "Cureent standing of a particular team in a league",
      "type": "object",
      "properties": {
        "competitionId": {
          "id": "http://jsonschema.net/competitionId",
          "type": "integer"
        },
        "seasonId": {
          "id": "http://jsonschema.net/seasonId",
          "type": "integer"
        },
        "teamId": {
          "id": "http://jsonschema.net/teamId",
          "type": "integer"
        },
        "teamName": {
          "id": "http://jsonschema.net/teamName",
          "type": "string"
        },
        "group": {
          "id": "http://jsonschema.net/group",
          "type": "string"
        },
        "played": {
          "id": "http://jsonschema.net/played",
          "type": "integer"
        },
        "won": {
          "id": "http://jsonschema.net/won",
          "type": "integer"
        },
        "drawn": {
          "id": "http://jsonschema.net/drawn",
          "type": "integer"
        },
        "lost": {
          "id": "http://jsonschema.net/lost",
          "type": "integer"
        },
        "for": {
          "id": "http://jsonschema.net/for",
          "type": "integer"
        },
        "against": {
          "id": "http://jsonschema.net/against",
          "type": "integer"
        },
        "points": {
          "id": "http://jsonschema.net/points",
          "type": "integer"
        },
        "goalDifference": {
          "id": "http://jsonschema.net/goalDifference",
          "type": "integer"
        },
        "id": {
          "id": "http://jsonschema.net/id",
          "type": "integer"
        },
        "lastUpdated": {
          "id": "http://jsonschema.net/lastUpdated",
          "type": "integer"
        }
      },
      "required": [
        "competitionId",
        "seasonId",
        "teamId",
        "teamName",
        "played",
        "won",
        "drawn",
        "lost",
        "for",
        "against",
        "points",
        "goalDifference",
        "id",
        "lastUpdated"
      ]
    }
  }
}
